…
    # Dials creates the parameter grids 
    # Tune applies the parameter grid to the models 
    # Dials pacakge 
    boosted_params <- 5
    knn_params <- 10

    ?grid_regular

    ## starting httpd help server ... done

    boosted_grid <- grid_regular(parameters(tidy_boosted_model), levels = boosted_params)
    boosted_grid

    ## # A tibble: 125 x 3
    ##    trees min_n   learn_rate
    ##    <int> <int>        <dbl>
    ##  1     1     2 0.0000000001
    ##  2   500     2 0.0000000001
    ##  3  1000     2 0.0000000001
    ##  4  1500     2 0.0000000001
    ##  5  2000     2 0.0000000001
    ##  6     1    11 0.0000000001
    ##  7   500    11 0.0000000001
    ##  8  1000    11 0.0000000001
    ##  9  1500    11 0.0000000001
    ## 10  2000    11 0.0000000001
    ## # ... with 115 more rows
…
